[
  {
    "name": "theme_info",
    "theme_name": "Suzy Shier",
    "theme_version": "4.1.5",
    "theme_author": "Diff",
    "theme_documentation_url": "https:\/\/www.diffagency.com\/",
    "theme_support_url": "https:\/\/www.diffagency.com\/"
  },
  {
    "name": "Newsletter",
    "settings": [
      {
        "type": "header",
        "content": "English Text"
      },
      {
        "type": "text",
        "id": "title",
        "label": "Title",
        "default": "GET ON THE LIST"
      },
      {
        "type": "text",
        "id": "subtitle",
        "label": "Subtitle",
        "default": "Join our mailing list and start enjoying these perks:"
      },
      {
        "type": "text",
        "id": "first",
        "label": "First Image Text",
        "default": "10% off your first order"
      },
      {
        "type": "text",
        "id": "second",
        "label": "Second Image Text",
        "default": "Updates on new arrivals and trends"
      },
      {
        "type": "text",
        "id": "third",
        "label": "Third Image Text",
        "default": "Birthday offers"
      },
      {
        "type": "text",
        "id": "fourth",
        "label": "Fourth Image Text",
        "default": "Special events"
      },
      {
        "type": "text",
        "id": "fifth",
        "label": "Fifth Image Text",
        "default": "Yearly surprises"
      },
      {
        "type": "text",
        "id": "cancel",
        "label": "Close Button Text",
        "default": "No thanks, just let me shop"
      },
      {
        "type": "header",
        "content": "French Text"
      },
      {
        "type": "text",
        "id": "titleFR",
        "label": "Title",
        "default": "SOYEZ DE LA PARTIE"
      },
      {
        "type": "text",
        "id": "subtitleFR",
        "label": "Subtitle",
        "default": "Adherez á notre infolettre et recevez ces avantages:"
      },
      {
        "type": "text",
        "id": "firstFR",
        "label": "First Image Text",
        "default": "10% de rabais sur votre premiére commande"
      },
      {
        "type": "text",
        "id": "secondFR",
        "label": "Second Image Text",
        "default": "Infos sur les nouveautés et derniéres modes"
      },
      {
        "type": "text",
        "id": "thirdFR",
        "label": "Third Image Text",
        "default": "Offres pour votre féte"
      },
      {
        "type": "text",
        "id": "fourthFR",
        "label": "Fourth Image Text",
        "default": "Événements speciaux"
      },
      {
        "type": "text",
        "id": "fifthFR",
        "label": "Fifth Image Text",
        "default": "Surprises annuelles"
      },
      {
        "type": "text",
        "id": "cancelFR",
        "label": "Close Button Text",
        "default": "Non merci, porsuivre mon agasinage"
      }
    ]
  },
  {
    "name": "Typography",
    "settings": [
      {
        "type": "select",
        "id": "type_base_size",
        "label": "Base size",
        "default": "16px",
        "options": [
          {
            "value": "14px",
            "label": "14px"
          },
          {
            "value": "15px",
            "label": "15px"
          },
          {
            "value": "16px",
            "label": "16px"
          },
          {
            "value": "17px",
            "label": "17px"
          }
        ]
      }
    ]
  },
  {
    "name": "Colors",
    "settings": [
      {
        "type": "header",
        "content": "General colors"
      },
      {
        "type": "color",
        "id": "color_primary",
        "label": "Primary color",
        "default": "#000",
        "info": "Used for text links, and primary buttons"
      },
      {
        "type": "color",
        "id": "color_body_text",
        "label": "Text color",
        "default": "#000",
        "info": "Color used for content and paragraph text"
      },
      {
        "type": "color",
        "id": "price_sale_color",
        "label": "Sale Price Color",
        "default": "#f00",
        "info": "Color used when a price is on sale"
      },
      {
        "type": "color",
        "id": "streak_price_color",
        "label": "Streak Price Color",
        "default": "#f00",
        "info": "Color used to streak the compare price"
      }
    ]
  },
  {
    "name": "Prestige",
    "settings": [
      {
        "type": "header",
        "content": "Prestige Settings"
      },
      {
        "type": "text",
        "id": "min_bin_value",
        "label": "Minimum BIN Value",
        "default": "600010600001",
        "info": "Place the minimum BIN value here. Input must be a number.",
        "placeholder": "600010600001"
      },
      {
        "type": "text",
        "id": "max_bin_value",
        "label": "Maximum BIN Value",
        "default": "810010367801",
        "info": "Place the maximum BIN value here. Input must be a number.",
        "placeholder": "810010367801"
      }
    ]
  },
  {
    "name": "API settings",
    "settings": [
      {
        "type": "header",
        "content": "Paybright Settings"
      },
      {
        "type": "text",
        "id": "paybright_api_url",
        "label": "Paybright API URL",
        "info": "Sandbox or Production",
        "placeholder": "E.g.: https:\/\/app.paybright.com\/dist\/sdk.js"
      },
      {
        "type": "text",
        "id": "paybright_public_key",
        "label": "Paybright API Public Key"
      }
    ]
  },
  {
    "name": "Social media",
    "settings": [
      {
        "type": "header",
        "content": "Social sharing options"
      },
      {
        "type": "checkbox",
        "id": "social_sharing_blog",
        "label": "Enable sharing for blog articles",
        "default": true
      },
      {
        "type": "checkbox",
        "id": "share_facebook",
        "label": "Share on Facebook",
        "default": true
      },
      {
        "type": "checkbox",
        "id": "share_instagram",
        "label": "Share on Instagram",
        "default": true
      },
      {
        "type": "checkbox",
        "id": "share_twitter",
        "label": "Tweet on Twitter",
        "default": true
      },
      {
        "type": "checkbox",
        "id": "share_pinterest",
        "label": "Pin on Pinterest",
        "default": true
      },
      {
        "type": "header",
        "content": "Sharing links"
      },
      {
        "type": "text",
        "id": "social_twitter_link",
        "label": "Twitter link"
      },
      {
        "type": "text",
        "id": "social_facebook_link",
        "label": "Facebook link"
      },
      {
        "type": "text",
        "id": "social_facebook_link_chateau",
        "label": "Facebook link Le Chateau"
      },
      {
        "type": "text",
        "id": "social_pinterest_link",
        "label": "Pinterest link"
      },
      {
        "type": "text",
        "id": "social_pinterest_link_chateau",
        "label": "Pinterest link Le Chateau"
      },
      {
        "type": "text",
        "id": "social_instagram_link",
        "label": "Instagram link"
      },
      {
        "type": "text",
        "id": "social_instagram_link_chateau",
        "label": "Instagram link Le Chateau"
      },
      {
        "type": "text",
        "id": "social_snapchat_link",
        "label": "Snapchat link"
      },
      {
        "type": "text",
        "id": "social_tumblr_link",
        "label": "Tumblr link"
      },
      {
        "type": "text",
        "id": "social_youtube_link",
        "label": "Youtube link"
      },
      {
        "type": "text",
        "id": "social_vimeo_link",
        "label": "Vimeo link"
      }
    ]
  },
  {
    "name": "Cart",
    "settings": [
      {
        "type": "checkbox",
        "id": "ship_to_store_enable",
        "label": "Enable ship to store",
        "default": false
      },
      {
        "type": "checkbox",
        "id": "cart_notes_enable",
        "label": "Enable cart notes",
        "default": true
      },
      {
        "type": "text",
        "id": "cart_free_shipping_minimum",
        "label": "Free Shipping Minimum",
        "default": "10500",
        "info": "Specify in cents"
      },
      {
        "type": "text",
        "id": "cart_shipping_rate",
        "label": "Shipping Flat Rate",
        "default": "500",
        "info": "Specify in cents"
      },
      {
        "type": "url",
        "id": "cart_shipping_info_link",
        "label": "Shipping info link"
      }
    ]
  },
  {
    "name": "Favicon",
    "settings": [
      {
        "type": "image_picker",
        "id": "favicon-suzy",
        "label": "Suzy Favicon image",
        "info": "Will be scaled down to 32 x 32px"
      }
    ]
  },
  {
    "name": "Klaviyo",
    "settings": [
      {
        "type": "text",
        "id": "klaviyo_list_id",
        "label": "Newsletter Email List Id",
        "info": "This is the unique id (6 letters\/numbers) affiliated with the Klaviyo list, found in the list URL and its settings tab",
        "default": "MTSn3L"
      },
      {
        "type": "text",
        "id": "newsletter_url_en",
        "label": "EN - Newsletter Form URL",
        "default": "\/pages\/email-sign-up"
      },
      {
        "type": "text",
        "id": "newsletter_url_fr",
        "label": "FR - Newsletter Form URL ",
        "default": "\/pages\/inscription-de-courriel"
      }
    ]
  },
  {
    "name": "Collections",
    "settings": [
      {
        "type": "image_picker",
        "id": "product_placeholder",
        "label": "Product placeholder image",
        "info": "270 x 400px. Will be used if no product image is available."
      },
      {
        "type": "range",
        "id": "product_per_page",
        "label": "Products per page",
        "min": 8,
        "max": 48,
        "step": 5,
        "default": 48
      }
    ]
  },
  {
    "name": "Sorting",
    "settings": [
      {
        "type": "text",
        "id": "sorting_inclusions",
        "label": "Sorted options",
        "info": "Use a comma-separated list to define the options that should be sorted. Ex: size,color,colour",
        "default": "size,length"
      },
      {
        "type": "text",
        "id": "en_sorting_map",
        "label": "English sorting order",
        "info": "Use a comma-separated list to define the order of sorting. Values are case-sensitive. Ex: S,M,L,XL,1,2,3,4,5,6",
        "default": "0,00,1,1-4,2,2-3,2-4,3,3 1\/2,3-4,4,4\/5,4-5,4-6,5,5-6,5-7,5.5,6,6.5,6-7,6-8,7,7.5,7-8,8,8.5,8-9,8-10,9,9\/10,9-10,9-13,9.5,10,10-11,10-12,11,11.5,11\/12,11-12,12,12-13,12-14,13,13\/14,13-14,14,15,16,28,30,32,34,36,38,XS,XS (5\/6),XS\/S,S\/P,S (7\/8),S\/M,M,M (10\/12),M\/L,L\/G,L (14),L (14\/16),L\/XL,XL,XL (16),XXL,O\/S,One Size,0-3 mth,0-6 MTH,3-6 mth,6-9 mth,6-12 mth,12-18 mth,12-24 mth,18-24 mth,2Y,3Y,34B,34C,36B,36C,38B,38C,38D,26,30,26x30,28x30,28x32,30x32,30x30,32x32,32x34,34x32,34x34,36x34,36x32,38x32,38x34,ASSTD"
      },
      {
        "type": "text",
        "id": "fr_sorting_map",
        "label": "French sorting order",
        "info": "Use a comma-separated list to define the order of sorting. Values are case-sensitive. Ex: S,M,L,XL,1,2,3,4,5,6",
        "default": "0,00,1,1-4,2,2-3,2-4,3,3-4,3 1\/2,4,4-5,4-6,5,5-6,5-7,5.5,6,6-7,6-8,6.5,7,7-8,7.5,8,8-9,8-10,8.5,9,9\/10,9-10,9-13,9.5,10,10-11,10-12,11,11\/12,11-12,11.5,12,12-13,12-14,13,13\/14,13-14,14,15,16,28,30,32,34,36,38,2830,2832,3030,3032,3232,3234,3432,3434,3632,3634,3834,XS,XS\/S,XP (5\/6),P (7\/8),S (7\/8),S\/P,S\/M,M,M (10\/12),M\/L,L\/G,G (14),G (14\/16),L\/XL,XL,XG (16),XXL,O\/S,Une Taille,0-3 mois,0-6 MTH,3-6 mois,6-12 mois,12-18 mois,12-24 mois,18-24 mois,2A,3A,34B,34C,36B,36C,38B,38C"
      }
    ]
  },
  {
    "name": "GDPR Banner",
    "settings": [
      {
        "type": "checkbox",
        "id": "gdpr_show_banner",
        "label": "Show Banner?",
        "default": true
      },
      {
        "type": "richtext",
        "id": "gdpr_banner_text",
        "label": "Banner text"
      },
      {
        "type": "richtext",
        "id": "gdpr_banner_text_fr",
        "label": "French Banner text"
      },
      {
        "type": "text",
        "id": "gdpr_cta_text",
        "label": "CTA Text"
      },
      {
        "type": "text",
        "id": "gdpr_cta_text_fr",
        "label": "French CTA Text"
      }
    ]
  }
]